4.0;Jan;Kowalski;22
5.0;Jan2;Kowalski2;23
3.0;Jan3;Kowalski3;25
3.0;Jan4;Kowalski4;22
2.0;Jan5;Kowalski5;28
4.5;Jan6;Kowalski6;31
4.0;Jan7;Kowalski7;26
3.0;Pawel;Nowak;35
3.5;Pawel2;Nowak2;37
2.0;Pawel3;Nowak3;40
